#! row-name:	V1	V2	V3	V4	V5	V6
1	-	-203.7	-84.1	18.5	-	-
2	-	-203	-97.8	25.8	134.7	-
3	-	-249	-92.1	27.8	177.1	-
4	-	-231.5	-97.5	27	150.3	-
5	-	-	-130.1	25.8	160	-
6	-	-223.1	-70.7	62.1	197.5	-
7	-	-164.8	-12.2	76.8	202.8	-
8	-	-221.6	-81.9	27.5	144.5	-
9	-	-153.7	-17	76.1	222.4	-
10	-	-184.7	-47.3	74.4	208.9	-
11	-	-	-148.8	11.4	137.7	-
12	-	-197.6	-6.4	137.1	-	-
13	-	-247.8	-35.4	80.9	229.5	-
14	-	-227	-104.7	20.2	140.2	-
15	-233.6	-115.9	-10.5	70	202.6	-
16	-	-232.4	-100.6	16.8	145.1	-
17	-	-199.4	-58.2	29.1	184.4	-
18	-	-195.7	-89.5	26.4	142.7	-
19	-	-180.1	-65	27.3	171.1	-
20	-	-	-85.2	27.1	-	-
21	-	-217.3	-77.1	27.6	151.5	-
22	-	-139.7	-15.8	83	215.5	-
23	-249.6	-132.8	-14.1	78.1	205.7	-
24	-	-152.7	-36.9	29.7	149.8	-
25	-	-224.1	-81.9	29.1	172.2	-
26	-	-	-235.8	6	144.4	-
27	-	-202.8	-45.1	84	227.3	-
28	-240.9	-138.4	-21.5	73.4	210.6	-
29	-247.1	-128.2	-31.3	29.2	143.1	-
30	-	-185.4	-80.3	23.9	115.8	222.7
31	-	-182.5	-75.8	27.5	165.2	-
32	-	-202.2	-99.1	23.8	136.3	242.5
33	-	-193.3	-82.6	26.3	160.5	-
34	-	-189.4	-63.3	27.6	136.8	-
35	-	-149	-31	73.5	187.8	-
36	-	-162.4	-26.5	72.6	-	-
37	-	-213.4	-107.2	24.7	158.5	-
38	-	-183.1	-38.8	69.1	207.7	-
39	-	-247.2	-115.2	14.3	141.1	-
40	-	-233.6	-85.9	27.6	164	-
41	-	-167.9	-33	72	236.9	-
42	-	-186	-54.1	74	229.4	-
43	-247	-132.2	-18.8	28.2	81.4	237.9
44	-	-204.9	-87.4	27.2	165.8	-
45	-	-166.6	-19.3	74	207.8	-
46	-	-190.3	-54.2	84.2	210.9	-
47	-	-191.4	-39.7	76	227	-
48	-	-165.8	-21.6	73.7	224.7	-
49	-	-118.4	-9.1	79.2	214.2	-
50	-	-197.4	-63.9	64.6	190.6	-
51	-	-230.4	-98.3	27.1	132.2	243
52	-	-202.8	-35	71.5	221.8	-
53	-	-170.6	-51.7	29.1	140.5	-
54	-	-226.5	-80.5	27.5	155.3	-
55	-	-153.2	-40.3	70.2	186.3	-
56	-	-198.8	-57.7	67.3	218.3	-
57	-	-224.4	-106.4	19.2	125.4	-
58	-	-170	-31	79.2	209.7	-
59	-	-239.1	-97.1	27.4	169.6	-
60	-	-236.5	-80	27.2	152.2	-
61	-	-233.9	-83.4	30.1	190.9	-
62	-	-	-115.6	26.3	146.4	-
63	-	-239.9	-115.9	26.6	175.8	-
64	-	-210	-89.4	14.2	130.3	-
65	-	-162	-47.6	28.2	149.6	-
66	-	-156.2	-32.2	68.4	202.9	-
67	-	-200.1	-71.5	29	172.7	-
68	-	-238.1	-95.2	29.2	181.8	-
69	-	-160.4	-32	73.8	209.8	-
70	-	-217.5	-115	18.4	144.3	-
71	-	-182.4	-74.5	27.4	144.7	-
72	-216.8	-121.8	-25.9	74.2	224.3	-
73	-	-191.6	-81.5	26.1	132.2	-
74	-	-	-115.5	27.1	182.2	-
75	-	-233.9	-95.9	26.1	150.8	-
76	-	-197.4	-81.7	29.3	224.1	-
77	-	-237.4	-106.8	25.7	141.5	-
78	-	-177.3	-53.4	71.1	193.3	-
79	-	-236	-108	20.8	116.7	234.7
80	-	-158.6	-35	70.9	192.8	-
81	-	-232.2	-90.9	20.8	102.8	-
82	-	-	-125.9	82.7	210.6	-
83	-	-226.1	-106	26.4	95.8	-
84	-	-139.3	-4	85.1	-	-
85	-	-	-112.1	24.8	96.2	-
86	-	-	-103.3	27.6	152.4	-
87	-	-236.6	-90.8	29	-	-
88	-	-179.5	-16.8	78.1	-	-
89	-	-220.3	-108	26.3	138.4	-
90	-	-231.3	-104.2	27.5	138.8	-
91	-	-	-87.9	29.7	165.6	-
92	-	-	-102.1	17.4	194.3	-
93	-	-129.3	-19.2	79.3	-	-
94	-	-166.1	-29.7	75.9	-	-
95	-	-206.6	-75.6	28.2	195.3	-
96	-	-168.1	-31.1	65.6	236.2	-
97	-	-98.6	-6	119	-	-
98	-	-209.2	-40.2	82.1	-	-
99	-	-248.9	-122.7	10.3	122.7	-
100	-	-161.4	-19.3	102.4	232.1	-
101	-	-239	-30	72.9	224.2	-
102	-	-244.1	-102.3	25.9	149.4	-
103	-	-246.9	-120.9	5.8	130.8	-
104	-	-200.2	-73.9	27.7	152.4	-
105	-	-232	-68.6	51.2	177.7	-
106	-	-193.1	-70.7	52.3	204.5	-
107	-	-200.8	-55.1	71.8	213.8	-
108	-	-223.2	-61.3	69.8	204.8	-
109	-	-146.4	-3.3	104.8	230.5	-
110	-	-245.2	-109.9	15.3	130.1	-
111	-	-227.6	-105	14.5	130.9	-
112	-	-208.3	-93.5	32.4	140.5	-
113	-	-150.6	-5.3	120.2	-	-
114	-	-233.8	-83.4	27.5	139.9	-
115	-	-215.4	-85.9	27.3	137.3	-
116	-	-142.8	-3.6	85.9	224.6	-
117	-	-169.3	-28.1	73	195.8	-
118	-	-173.8	-31.8	70.9	215.7	-
119	-	-206.5	-102.1	18.1	115.1	-
120	-	-	-101.5	26	165.2	-
121	-	-188.4	-54.2	75	189.6	-
122	-	-168	-36.4	77.7	209.3	-
123	-	-226.5	-81.5	27.6	192.9	-
124	-	-214.8	-57.4	67.2	214.8	-
125	-	-180.6	-59.1	67.8	188.7	-
126	-	-210.9	-73.2	28.2	182.2	-
127	-	-141.5	-6.2	76.6	222.7	-
128	-	-142.9	-18.5	83.4	221.7	-
129	-	-246.2	-104.7	25.9	136.8	-
130	-	-211.3	-99.9	26.4	131.9	248.9
131	-	-213.1	-35.9	71.6	207.3	-
132	-201.6	-103.9	-12.1	65.8	211	-
133	-	-203.9	-56	29.7	143.7	-
134	-	-210.6	-73.2	26.5	130.8	248.7
135	-	-204.3	-70.8	29.4	246.1	-
136	-	-161.4	-33.4	67.7	200.9	-
137	-	-223	-94.3	27.5	134.7	-
138	-	-239.2	-94.3	26.5	149.8	-
139	-	-177.9	-26.6	79.5	220.5	-
140	-	-221.4	-83.2	27.6	144.1	-
141	-	-201.7	-79.4	55	159.9	-
142	-	-238.1	-78.5	26.3	128	241.5
143	-	-198.2	-64.9	29	137.1	-
144	-	-	-161.2	18.1	136.1	-
145	-	-227.2	-99.3	27.5	125.3	249.1
146	-	-153	-20.4	74.4	217.8	-
147	-	-216.6	-82.2	29	118.7	-
148	-	-155.9	-24.4	75.6	180	-
149	-	-	-118.9	15.9	137.1	-
150	-	-222.5	-103.2	19.8	178.8	-
151	-	-165.2	-28.6	74.8	181.6	-
152	-	-161.6	-19.7	71.7	206.9	-
153	-	-193.8	-40.6	71.4	194.7	-
154	-	-206.6	-71.4	29.6	175.6	-
155	-229.8	-118.2	-7.6	73.8	206.9	-
156	-	-182.7	-55.4	29.4	135	244.2
157	-	-151.2	-28.5	67.8	171	-
158	-	-168.5	-38.9	73.8	191.6	-
159	-	-150.3	-22.9	68.8	193.9	-
160	-	-185.2	-58.6	59.8	148.4	-
161	-238.8	-143.4	-33.7	66.6	174.2	-
162	-	-155.6	-41.5	74.9	186.1	-
163	-	-130.8	-33.1	70	153.2	-
164	-239.4	-128	-26.9	72.2	155	-
165	-	-147	-38.1	69.1	168.3	-
166	-	-143.5	-21	72.4	175.2	-
167	-	-170.2	-60.2	29.4	131.8	-
168	-	-215.1	-91.3	27.6	140.8	-
169	-	-216	-91.8	24.4	126.3	238.8
170	-	-131.6	-41.3	30.1	135.3	248.1
171	-	-	-89.8	22.7	127.7	-
172	-	-205.3	-87.2	27.6	117.4	238.2
173	-	-201.8	-77.9	26.4	137.8	238.6
174	-	-206.4	-92	21.5	119.4	234.4
175	-	-	-91.4	8.2	135.2	-
176	-	-154.5	-37.8	70.3	194.5	-
177	-	-205.8	-70.7	66.4	193.6	-
178	-	-170.7	-19.8	70.8	187.7	-
179	-	-192.3	-80.8	15.4	120	244.1
180	-	-206.8	-60.3	29.8	144.4	-
181	-	-229.4	-101.3	27.6	154.9	-
182	-	-139.8	-11.6	81.2	175.5	-
183	-	-149.8	-45.4	69.1	190	-
184	-	-242.1	-106	21.9	120	-
185	-	-248.4	-97.4	26.3	144.7	-
186	-	-239.2	-89.5	27.1	153	-
187	-	-159.7	-23.3	69.6	202.6	-
188	-	-178	-52.8	29	137.3	-
189	-	-184	-62.2	65	191.2	-
190	-	-179.9	-9.1	107.6	-	-
191	-	-199.9	-104.4	25.6	126.1	249
192	-	-128	-3.9	83.4	-	-
193	-	-232.9	-103.6	21.6	121.4	-
194	-	-146.5	-2.9	113.7	241.9	-
195	-	-214.1	-100.4	8.1	108.2	-
196	-	-	-128	10.8	88.7	245.2
197	-	-234.3	-111.6	3.6	134.2	-
198	-	-196.8	-67.9	29.4	218.6	-
199	-	-208.7	-71.1	28.9	147	-
200	-	-230.5	-92.2	27.7	136.7	-
201	-	-243.3	-109.3	13.3	146.5	-
202	-	-133.1	-0.1	114.6	237.2	-
203	-	-134.7	-5.1	81.8	-	-
204	-	-227.7	-96.2	26.3	142.6	241.8
205	-	-207.6	-64.2	31.6	207	-
206	-	-207.7	-72.8	27.8	145	-
207	-	-236	-84.5	27.6	141.6	-
208	-	-	-127.3	14.5	81.3	212.8
209	-	-147.6	-17.7	124.8	248.7	-
210	-	-184.5	-42.1	69.7	205.2	-
211	-	-246.4	-99.5	27	153.3	-
212	-	-206.8	-76.9	27.8	146.4	-
213	-	-195.7	-55.8	77.2	207.4	-
214	-221.7	-120.4	-14.8	72.2	182.1	-
215	-248.9	-136.7	-17.6	75.9	188	-
216	-247.8	-141.5	-19.5	78.5	190.5	-
217	-249.9	-130.5	-21.2	67.3	145.6	-
218	-	-197.7	-81.3	25.9	140.9	-
219	-	-238.9	-74.7	66.6	189.5	-
220	-	-208.7	-20.1	73.6	209.7	-
221	-	-148.8	-29.5	69.5	154.6	-
222	-	-154.3	-21.4	92.3	228.1	-
223	-	-215.5	-81.3	68.5	205.3	-
224	-	-244.1	-125	84.4	197	-
225	-	-145	-43.3	25.8	114.8	223.7
226	-	-170.4	-23.5	70.4	210.4	-
227	-	-	-13.6	96.2	215.3	-
228	-	-	-41.7	72.2	192.9	-
229	-	-	-101.4	27.7	153.2	-
230	-	-185.6	-58.4	69.2	192.2	-
231	-	-210.8	-46.6	29.8	151	-
232	-	-	-210.4	11.3	166	-
233	-	-139.6	-3	83.4	208.8	-
234	-	-	-111.9	27.3	134.3	-
235	-	-151	-8	79.7	219.1	-
236	-	-150.3	-14.2	82.8	202.9	-
237	-	-117.4	-16.6	78	193.8	-
238	-	-230.5	-106.6	26.2	141.2	-
239	-	-213.4	-108.9	19.2	117.9	235.6
240	-	-181.6	-73.1	10.5	100.2	190.5
241	-	-169.1	-71.2	24.6	111.5	224.5
242	-	-177.6	-72.8	26.2	139	218.7
243	-	-124.8	-4.4	87	199.7	-
244	-	-212.2	-95.7	11.6	107.3	214.5
245	-231.6	-127.2	-14.7	103	181.3	-
246	-	-	-123.5	9.5	110.6	244.3
247	-	-	-133	27.7	144.2	-
248	-	-188.8	-77	27.7	139.2	-
249	-	-205	-73.7	28	142.6	-
250	-	-182.7	-63.2	27.8	129.4	234.1
251	-	-177.4	-55.1	56.7	166.9	-
252	-230.2	-128.8	-9.7	76.7	199.8	-
253	-	-217.3	-85.2	26.9	127.7	242.2
254	-	-	-118.8	6.1	104	208.5
255	-	-211.8	-96.8	11.9	111.9	229.2
256	-	-181	-77.9	27.8	138.1	-
257	-	-220	-96.9	8.3	121.6	232.8
258	-	-166.8	-23.1	72.7	188.4	-
259	-	-247	-104.8	15.3	126.9	240.6
260	-	-236.6	-102.6	10.2	124.3	248.4
261	-	-236.2	-110.7	12.6	127.8	230.1
262	-	-209.9	-93.6	26.3	130.1	-
263	-	-188.9	-61.6	28.5	170.6	-
264	-	-201.3	-43.1	72.8	205.5	-
265	-	-210.4	-77.7	28	133.2	242
266	-	-235.3	-75.6	11.6	108.5	197.1
267	-	-175.1	-51.7	64.7	181	-
268	-	-	-106.7	28	161.1	-
269	-	-222	-107.8	2.6	81.9	190.8
270	-	-200.7	-84.7	24.6	121.3	229.2
271	-239.8	-123.3	-13	70.2	149.4	-
272	-	-160.9	-43.2	69.6	153.3	-
273	-	-138.4	-14.9	73	184.4	-
274	-	-	-95.1	71.1	223.4	-
275	-	-227.5	-83.3	27.7	145.8	-
276	-	-	-112.6	27.9	188.5	-
277	-	-	-120.2	27.6	155.7	-
278	-	-163.1	-52.6	66	206.1	-
279	-	-205.2	-100.7	12.1	95.7	224.8
280	-	-190.8	-72.1	28.1	128.2	-
281	-	-	-130.7	10.1	81.5	221.9
282	-	-180.1	-49.1	65.3	184.8	-
283	-	-215.2	-81	64.6	200.7	-
284	-243.3	-128.8	-8.4	75.9	189	-
285	-	-145	-10.6	91.8	231	-
286	-	-241.6	-113.4	27.3	138.8	-
287	-	-182.5	-75	28.2	137.1	-
288	-	-177.4	-65.9	63.2	189.9	-
289	-	-143.3	-10	141	-	-
290	-	-242.2	-62.2	29	198.5	-
291	-	-247.8	-95.3	28.3	194.7	-
292	-	-164.6	-80.1	26.2	126.6	243.6
293	-	-207.6	-110	2.8	84.9	207.1
294	-	-243.3	-87.4	62.4	193.3	-
295	-	-168	-3	73.8	183.9	-
296	-	-234.5	-104.8	27.5	133.2	-
297	-	-189.5	-64.1	59.7	140.7	-
298	-	-156.3	-38.1	73	146.8	-
299	-	-191.5	-87	27.8	137.6	246
300	-	-171.2	-66.7	28.4	141.8	248.4
301	-	-221.8	-93.5	27.8	130.1	-
302	-	-158.8	-15.1	73.6	199.8	-
303	-	-177.5	-1.9	117.9	223.2	-
304	-196.9	-105	-2.3	76.3	178.8	-
305	-	-196.2	-94.9	4.3	84.2	183.4
306	-	-150.3	-39.9	68.9	172.3	-
307	-213.9	-107.7	-7.5	92.7	211.5	-
308	-	-215.9	-85	19.4	103.3	224.2
309	-	-139.7	-24.3	81	211.8	-
310	-	-	-159.4	28.3	-	-
311	-	-229	-107.4	19.5	137	-
312	-	-	-158.4	5.6	132.9	-
313	-	-144.7	-38.2	67	152.7	-
314	-	-222.1	-84	26.6	140	-
315	-	-163	-46.6	74	204.2	-
316	-	-201.9	-85.3	22.7	138.4	247.5
317	-	-176.6	-64.6	47.8	160.6	-
318	-	-234.3	-106.7	25	114.7	229.3
319	-	-152.4	-31.7	70.4	182.2	-
320	-	-163.9	-53.7	56.3	146.1	-
321	-	-125	-1.4	108	220.9	-
322	-235.9	-138.1	-28.1	63.1	178.3	-
323	-	-	-116.3	6	109.7	222.8
324	-	-183.8	-8.7	130	-	-
325	-	-181.8	-8.5	84.2	216.6	-
326	-	-235.1	-99.5	27.9	152.4	-
327	-	-	-136	84.2	219.6	-
328	-	-	-155.2	21	130.3	-
329	-	-173	-43.3	81.3	213.6	-
330	-	-	-129.1	14.8	119.3	-
331	-	-	-138.9	9.4	121.9	-
332	-	-198.5	-15.9	115.6	233.5	-
333	-	-138.6	-3	133.5	-	-
334	-	-226.1	-69.5	30	165.4	-
335	-	-172.7	-47.6	29.2	144.5	-
336	-	-194.4	-78.9	64.6	135.9	-
337	-	-183	-60.9	79.1	241.8	-
338	-	-222.8	-105	24.6	112.1	234.4
339	-	-217.7	-91	27.5	144.6	-
340	-231.9	-128.3	-20.4	73.7	189.9	-
341	-	-179.1	-65.2	28	155.5	-
342	-	-139.5	-18.9	82.8	215.6	-
343	-	-247.4	-99.2	26.2	122.7	247.4
344	-	-193.6	-51	64.9	170.2	-
345	-	-	-145.8	27.6	142.7	-
346	-	-	-143	16.1	142.4	-
347	-	-	-106.4	19.3	117.6	-
348	-	-199.4	-67.7	27.6	137.1	246.9
349	-	-200.6	-59.6	197.8	-	-
350	-	-172.6	-27.3	65.9	134.9	242.5
351	-	-195.3	-84.4	26.2	133.5	-
352	-	-206	-101.6	80.4	192	-
353	-	-157.1	-54.3	60.8	157.9	-
354	-	-140.7	-24.7	76.6	159.1	-
355	-	-151.9	-37.4	69.1	166.6	-
356	-239.9	-140.4	-41.6	64.5	149.7	-
357	-	-157.9	-44.5	55.3	180.4	-
358	-	-168.8	-55.3	46.5	164.2	-
359	-	-220.9	-102.8	10	78.7	185.8
360	-	-202.8	-61.9	30	146.7	-
361	-	-217.5	-90	29.8	172.4	-
362	-	-	-136.6	27.1	186.3	-
363	-	-234	-97.2	29.7	219.5	-
364	-	-	-127	28	164	-
365	-	-	-108.9	26.5	152.8	-
366	-	-	-46.7	70.4	187.4	-
367	-	-	-157.2	9.6	136.5	-
368	-	-157.6	-6	126.3	-	-
369	-	-159.3	-11.3	81.4	-	-
370	-	-226.7	-83.5	66.8	229.2	-
371	-	-	-74.3	69.8	223	-
372	-	-160.5	-36.2	72.3	201.5	-
373	-	-194.9	-58.8	68.8	184.4	-
374	-227.8	-129.1	-20.9	66.3	166.8	-
375	-	-221.8	-79.7	17.3	111	207.4
376	-	-191	-79.3	27.3	130.9	236.8
377	-	-203	-102.6	1.7	101.5	208.1
378	-232.8	-116.6	-17.3	65.8	167.6	-
379	-	-	-18.5	70.2	173.8	-
380	-245.2	-147.9	-47.9	60.9	147.7	-
381	-	-210.2	-107.6	3.6	103.1	218.5
382	-	-213.2	-99	15.5	93.4	196.4
383	-224.6	-104.6	-1.6	104.7	229.5	-
384	-	-148.3	-39.4	32.3	133	243
385	-	-200.6	-98.6	77.3	170.3	-
386	-	-168.2	-54.3	66.2	169.5	-
387	-	-170.8	-44.1	61.7	183.9	-
388	-	-232.7	-89.4	8.9	108	235.8
389	-	-217.2	-97.5	17	128.6	245.6
390	-	-166.8	-49.5	52	135.3	-
391	-234	-140.8	-56.5	28	114.3	222.9
392	-	-141.7	-35.3	69.6	153.3	-
393	-	-157.9	-52.7	59.1	163	-
394	-	-181.3	-59.2	61.5	141.1	-
395	-	-188	-67.3	24.1	122.3	243.2
396	-	-233.5	-117.8	2.7	109.4	220.8
397	-	-203.6	-95.9	14.6	133.7	229.8
398	-	-	-107.2	7.2	126.9	-
399	-	-199.9	-78.1	6.5	91.2	205.4
400	-	-174.3	-67.6	28.3	131.9	-
401	-	-188.7	-49.4	73.9	194.7	-
402	-239	-131.3	-12.9	73.6	192.6	-
403	-221.3	-116.8	-15.6	72	160.1	-
404	-	-175.3	-18.5	86.3	195.6	-
405	-	-233	-115.4	11.5	115.9	249.1
406	-	-222.7	-92.6	24.1	134.2	248.2
407	-	-218.2	-96.8	27.6	138.7	-
408	-	-213.8	-88.1	21	127.3	-
409	-	-229.9	-106.6	16.9	130.9	247.5
410	-	-248.6	-106.1	25.7	143.9	-
411	-	-206.5	-78.4	27	140.6	-
412	-	-217.6	-103	14.3	137.2	-
413	-	-138.1	-16.5	76.7	179.7	-
414	-	-	-135.5	11.6	124.8	-
415	-	-228.4	-111.2	6.4	122.7	-
416	-	-209	-93.8	10.7	121.9	237.3
417	-	-138	-21.1	73	194.2	-
418	-	-210.1	-44.8	70.6	185.6	-
419	-	-174.6	-44	74.1	194.6	-
420	-	-202.4	-83	26.5	122.6	239
421	-	-141.7	-11.7	87.9	207.2	-
422	-	-	-208.3	3.1	109.1	-
423	-	-188.8	-16.8	109.2	218.8	-
424	-	-223.1	-127.4	1	108.9	231
425	-	-147.6	-29.7	67.2	152.7	-
426	-	-223.8	-105.2	27.7	142.9	-
427	-	-228.1	-98.5	28.1	166.5	-
428	-	-194.8	-25.4	69.8	169.9	-
429	-	-164.6	-65.4	26.4	116.1	196.7
430	-	-169	-43.1	67.7	190.3	-
431	-	-197.1	-98.2	22.1	124.6	236.1
432	-	-156.2	-32.9	63.3	182.8	-
433	-	-220.6	-114.2	9.7	106.4	227.9
434	-219.9	-120.9	-1.3	99.5	207.6	-
435	-	-240.5	-110.3	26.1	142.8	-
436	-	-239.6	-121.4	2.9	124.9	-
437	-	-139.8	-7.3	121	-	-
438	-	-212	-66.2	50.4	178.2	-
439	-	-232.7	-109.2	18.4	127.5	-
440	-	-236.3	-115.1	5.1	109	212
441	-241.2	-107.1	-9.1	95.1	198.6	-
442	-226.7	-143.8	-30.4	75.8	196.6	-
443	-	-131.8	-26.5	64.7	177.2	-
444	-	-144.9	-0.9	105.3	230.9	-
445	-	-214	-81.8	66.1	191.3	-
446	-	-210.6	-94.3	16.7	125.5	239.7
447	-215.8	-114.8	-18.4	65.3	171.6	249.7
448	-	-156	-14	113.7	249.3	-
449	-	-210.5	-41.9	-	-	-
450	-	-189.2	-72	56.8	133.8	246.7
451	-	-214.2	-102.2	5.5	75.6	154.3
452	-219.6	-107.9	-16	101.7	186	-
453	-	-153	-38	61.3	144.4	245.9
454	-	-179.8	-63.4	56	157.5	-
455	-	-174.5	-44.8	73.3	179.7	-
456	-	-206.8	-108.9	3.7	102.1	210.3
457	-	-169.5	-79.7	27.9	129.4	242.8
458	-222.2	-104.6	-2.4	84.3	204.7	-
459	-236.3	-124	-6.8	95.7	196	-
460	-	-216.5	-90.2	27.8	138.9	-
461	-	-163.2	-43.6	69.5	173.9	-
462	-	-207.3	-88.3	9.6	104.1	218
463	-242.6	-142	-21.8	69.8	148.7	-
464	-235.9	-128.8	-33.1	68.8	177.1	-
465	-	-140.8	-38.7	58.1	186.3	-
466	-	-149.5	-40.3	62.8	139.7	242.5
467	-247.6	-157.8	-53.3	28.3	122.9	227.6
468	-	-154.9	-50.8	28.1	119.9	201.1
469	-	-180.7	-70.9	33.7	114.8	222.5
