#! row-name:	id	y	D12S2070.a1	D12S2070.a2	D12S839.a1	D12S839.a2	D12S821.a1	D12S821.a2	D12S1344.a1	D12S1344.a2	EXON12.a1	EXON12.a2	EXON1.a1	EXON1.a2	D12S2263.a1	D12S2263.a2	D12S1341.a1	D12S1341.a2
1	2	1	4	4	3	4	3	7	8	10	2	2	2	2	6	8	5	8
2	4	1	4	4	4	5	5	6	3	4	2	2	2	2	8	9	3	5
3	6	1	4	4	3	5	3	5	3	8	2	2	2	2	7	10	8	8
4	12	1	4	4	4	5	3	4	8	8	2	2	0	0	6	7	5	7
5	13	1	4	4	5	5	5	6	3	3	2	2	2	2	9	9	6	6
6	14	1	1	5	5	5	3	5	10	10	2	2	2	2	6	8	4	5
7	15	1	2	5	4	5	3	3	8	8	2	2	2	2	7	8	7	8
8	16	1	2	2	5	5	3	3	3	8	2	2	2	2	2	8	3	8
9	17	1	2	2	4	4	3	5	3	8	2	2	2	2	8	8	4	5
10	19	1	2	5	3	4	6	8	2	3	2	2	2	2	7	10	1	3
11	20	1	4	4	4	4	3	9	8	13	2	2	2	1	5	8	5	7
12	21	1	4	5	4	4	0	0	3	8	2	2	2	2	9	12	6	7
13	22	1	1	4	3	5	5	8	3	9	2	2	2	1	6	8	5	7
14	23	1	1	4	4	4	3	6	8	14	2	2	2	1	3	8	5	5
15	25	1	4	5	4	5	3	8	8	8	2	1	2	2	8	8	5	5
16	26	1	2	3	3	4	3	7	8	9	2	2	2	1	5	8	0	0
17	27	1	2	5	4	5	3	6	0	0	2	2	2	1	3	8	7	8
18	29	1	4	5	3	6	3	4	3	3	2	2	2	2	8	10	3	5
19	30	1	4	5	3	5	3	9	8	9	2	1	2	1	5	8	5	7
20	31	1	2	5	5	6	3	3	8	8	2	2	2	2	6	7	7	7
21	35	1	1	1	4	5	0	0	8	9	2	2	2	1	0	0	5	8
22	36	1	4	4	3	4	0	0	8	8	2	2	2	2	7	8	6	6
23	39	1	1	5	3	5	0	0	8	13	2	2	2	1	7	8	5	5
24	40	1	1	2	0	0	3	8	0	0	2	2	2	1	5	10	3	6
25	42	1	4	5	3	4	0	0	8	8	2	2	0	0	7	8	4	8
26	47	1	4	5	3	5	0	0	8	8	2	2	2	2	8	11	4	7
27	49	1	1	2	3	4	3	5	3	8	2	2	2	2	8	8	3	6
28	51	1	1	2	3	5	3	3	8	13	2	2	2	2	8	8	5	7
29	58	1	4	4	4	4	4	4	6	8	2	2	2	2	6	11	3	5
30	59	1	0	0	5	5	3	6	8	8	2	2	2	1	3	7	5	8
31	62	1	1	4	3	4	3	3	8	9	2	2	2	2	6	7	5	5
32	64	1	2	5	3	4	3	6	3	8	2	2	2	1	3	7	6	7
33	65	1	1	5	3	4	3	7	3	4	2	2	2	1	5	8	5	5
34	76	1	1	2	4	4	6	10	3	9	2	2	2	1	4	11	3	7
35	79	1	4	8	3	5	4	8	3	4	2	2	2	2	7	7	3	3
36	80	1	2	4	4	5	3	5	3	8	2	2	2	2	8	11	3	5
37	81	1	2	5	5	5	6	9	3	3	2	2	2	2	7	9	3	5
38	82	1	2	2	4	5	3	3	8	12	2	2	2	2	6	9	4	7
39	84	1	4	5	4	5	6	6	3	12	2	2	2	1	3	8	5	7
40	85	1	5	5	4	4	3	6	10	0	2	2	0	0	5	6	3	5
41	87	1	5	5	4	5	3	5	6	8	2	2	2	2	7	10	3	5
42	89	1	4	5	3	5	6	6	3	12	2	2	2	1	5	10	5	7
43	90	1	2	5	4	5	3	5	3	8	2	2	2	2	7	8	4	5
44	91	1	1	4	3	4	0	0	8	12	2	2	2	1	3	7	1	6
45	92	1	2	4	3	5	3	5	8	8	2	2	2	2	8	8	7	7
46	93	1	1	5	3	5	5	6	3	3	2	2	2	1	4	8	3	6
47	95	1	2	4	4	5	8	9	9	9	2	2	1	1	5	8	4	5
48	96	1	1	2	4	4	5	7	9	10	2	2	0	0	3	10	0	0
49	98	1	0	0	4	4	6	6	3	11	2	2	2	1	3	7	3	5
50	99	1	0	0	5	5	3	9	9	10	2	2	2	1	4	8	0	0
51	102	1	4	5	4	5	3	5	3	8	2	2	2	2	7	11	4	5
52	105	1	4	5	3	5	3	9	9	12	2	2	2	1	5	8	5	6
53	106	1	0	0	5	5	6	8	3	9	2	2	0	0	5	11	6	7
54	107	1	4	4	5	5	4	7	8	9	2	2	0	0	3	10	3	7
55	108	1	2	2	4	5	3	3	3	8	2	2	2	2	7	8	5	7
56	110	1	1	5	3	5	4	6	8	9	2	2	0	0	7	9	3	7
57	117	1	1	4	4	5	3	7	3	8	2	2	0	0	9	9	5	7
58	118	1	2	2	3	3	4	6	3	7	2	2	0	0	8	10	3	5
59	123	1	1	4	3	5	3	10	8	9	2	2	2	1	8	8	4	7
60	124	1	2	4	4	5	4	5	3	10	2	2	2	1	3	6	8	8
61	125	1	1	2	3	3	3	11	8	9	2	2	2	1	4	7	5	7
62	130	1	2	2	3	4	6	8	3	11	2	2	2	1	4	8	4	5
63	131	1	4	4	4	5	5	9	3	9	2	2	1	1	4	4	5	8
64	133	1	1	8	3	3	4	5	3	14	2	2	2	1	5	8	7	7
65	134	1	2	4	4	4	0	0	8	9	2	2	0	0	3	4	3	7
66	135	1	4	5	4	5	3	11	8	9	2	2	2	1	6	7	4	4
67	136	1	4	4	4	5	3	13	9	10	2	2	0	0	4	9	4	5
68	139	1	0	0	0	0	5	7	3	8	2	2	2	1	8	8	3	5
69	144	1	4	5	4	5	3	5	3	8	2	2	2	2	7	9	5	5
70	145	1	1	4	5	5	3	3	8	8	2	1	2	2	8	8	5	5
71	149	1	1	4	3	4	3	6	3	8	2	2	2	2	8	9	6	7
72	150	1	4	4	4	5	3	5	1	8	2	2	2	1	3	9	5	5
73	153	1	4	4	3	3	4	5	3	8	2	2	2	2	6	10	3	5
74	155	1	4	4	5	5	3	8	8	9	2	2	2	1	5	12	3	6
75	157	1	2	2	4	4	3	6	8	13	2	2	2	1	6	9	5	8
76	158	1	4	5	4	5	6	7	3	9	2	2	2	1	4	8	5	7
77	162	1	4	6	3	5	3	6	3	8	0	0	2	2	8	8	5	7
78	163	1	2	5	3	5	3	7	9	10	2	2	2	1	5	9	5	7
79	166	1	4	4	4	4	3	6	3	8	2	2	2	2	6	11	6	7
80	167	1	4	4	4	5	0	0	3	8	2	2	2	2	8	9	4	8
81	168	1	2	5	3	4	3	3	8	8	2	2	2	2	7	9	7	7
82	169	1	4	4	4	5	3	11	8	9	2	2	0	0	6	6	0	0
83	171	1	5	5	5	5	3	10	8	9	2	2	2	1	5	7	8	10
84	172	1	5	6	4	4	3	3	8	10	2	2	2	2	8	8	5	5
85	173	1	4	5	5	5	0	0	8	12	2	2	0	0	8	9	4	5
86	174	1	2	5	4	5	3	8	8	9	2	2	2	1	5	8	5	6
87	175	1	4	4	4	4	8	10	9	9	2	2	1	1	5	8	7	7
88	176	1	4	6	4	4	3	7	8	8	2	2	2	2	8	8	4	5
89	177	1	2	4	4	4	3	7	8	8	2	2	2	2	7	8	3	8
90	179	1	5	5	4	5	3	5	8	8	2	2	2	2	8	10	3	5
91	182	1	4	4	3	4	2	5	3	8	2	2	2	2	8	8	7	7
92	183	1	2	5	3	3	0	0	3	8	2	2	2	2	7	8	7	8
93	184	1	2	5	3	5	0	0	9	14	2	2	1	1	4	6	3	4
94	186	1	2	4	3	4	6	6	3	14	2	2	2	1	6	10	7	8
95	188	1	4	4	3	4	3	6	8	9	2	2	2	1	5	8	3	5
96	191	1	1	1	3	4	4	6	3	3	2	2	2	2	7	12	5	5
97	193	1	2	6	3	5	3	7	9	11	2	2	2	1	3	7	5	7
98	194	1	1	4	3	5	3	4	8	8	2	2	2	2	7	8	5	6
99	195	1	5	5	2	5	3	3	8	8	2	2	2	2	9	10	7	7
100	196	1	2	4	4	4	2	6	3	8	2	2	2	2	6	8	5	8
101	198	1	1	4	4	5	6	8	3	9	2	2	2	1	4	8	3	10
102	199	1	1	6	3	4	3	3	8	12	2	2	2	2	8	10	7	7
103	201	1	5	5	4	4	6	6	9	13	2	2	1	1	5	10	4	7
104	202	1	2	2	3	5	4	5	3	3	2	2	2	2	8	9	7	7
105	205	1	2	4	3	4	3	7	8	11	2	2	2	1	3	8	3	7
106	208	1	4	5	4	5	3	3	8	10	2	2	2	2	10	10	4	7
107	209	1	2	5	5	5	3	3	6	8	2	2	2	2	9	10	3	3
108	215	1	4	6	4	5	0	0	9	9	2	2	1	1	2	6	5	8
109	219	1	2	5	3	4	4	8	9	10	2	2	2	1	4	8	7	8
110	220	1	2	4	5	5	3	7	8	9	2	2	2	1	5	8	7	8
111	222	1	1	4	5	5	3	8	8	9	2	2	2	1	5	10	4	7
112	223	1	2	2	4	5	3	6	9	11	2	2	2	1	5	9	7	8
113	228	1	4	4	3	4	3	8	3	9	2	2	2	1	7	10	3	8
114	229	1	5	5	3	6	5	10	9	12	2	2	2	1	4	8	1	7
115	230	1	2	5	3	4	3	5	3	10	2	2	0	0	8	8	5	7
116	231	1	4	4	4	4	3	7	8	9	2	2	2	2	8	9	3	3
117	233	1	5	6	4	5	4	7	8	9	2	2	0	0	5	10	7	7
118	234	1	2	4	4	4	3	4	3	8	2	2	0	0	8	9	6	7
119	235	1	4	4	4	5	4	4	3	8	2	2	2	2	8	9	5	8
120	237	1	5	7	4	4	3	3	8	8	2	2	2	2	7	9	5	7
121	238	1	4	4	3	4	5	7	8	9	2	2	0	0	3	8	5	5
122	240	1	1	5	3	5	6	8	0	0	2	2	2	1	8	8	5	7
123	242	1	5	5	4	4	8	10	0	0	2	2	0	0	9	9	5	7
124	243?	1	1	5	3	3	3	6	3	13	0	0	2	1	5	5	3	7
125	244	1	0	0	3	3	5	7	0	0	2	2	0	0	8	8	0	0
126	245	1	4	4	3	5	6	7	3	11	2	2	2	1	3	9	3	7
127	247	1	2	5	3	4	3	3	8	9	2	2	2	1	5	8	6	7
128	248	1	1	2	4	5	3	6	8	9	2	2	2	1	0	0	3	7
129	249	1	4	4	5	5	2	3	8	12	2	2	2	2	6	7	4	4
130	251	1	4	4	3	3	3	4	6	8	2	2	2	2	7	8	8	9
131	N100	0	0	0	0	0	3	3	0	0	2	1	0	0	9	13	3	5
132	N101	0	4	5	4	4	3	3	8	8	2	1	2	2	9	10	3	5
133	N102	0	4	4	5	5	6	6	3	9	2	2	2	1	6	9	3	6
134	N11	0	4	5	3	5	0	0	0	0	2	1	2	1	6	9	7	8
135	N115	0	4	4	5	5	0	0	0	0	2	2	2	2	9	9	7	7
136	N12	0	2	4	3	3	4	6	0	0	2	2	2	2	11	12	5	9
137	N122	0	1	5	3	4	6	6	8	8	2	1	0	0	9	12	7	8
138	N13	0	4	5	5	5	3	5	3	8	2	2	2	1	4	9	4	5
139	N133	0	0	0	0	0	0	0	0	0	2	1	0	0	0	0	1	4
140	N14	0	0	0	0	0	0	0	0	0	2	2	0	0	0	0	6	7
141	N142	0	2	4	4	5	3	3	8	8	2	1	0	0	0	0	4	7
142	N15	0	5	5	4	5	3	3	8	8	2	1	0	0	0	0	5	6
143	N16	0	1	4	3	4	2	3	8	8	2	1	2	2	7	9	8	8
144	N17	0	0	0	0	0	0	0	0	0	2	2	0	0	0	0	5	5
145	N18	0	4	4	3	4	3	3	8	8	2	2	2	2	9	9	3	5
146	N188	0	2	4	5	5	0	0	6	8	2	2	2	2	9	11	7	7
147	N19	0	4	5	4	5	3	3	8	8	2	2	2	2	8	11	4	4
148	N193	0	1	4	3	4	0	0	4	8	2	2	2	2	10	11	3	7
149	N196	0	4	4	3	4	4	4	3	9	2	2	0	0	8	9	7	8
150	N20	0	2	5	4	4	0	0	0	0	2	2	0	0	8	11	6	7
151	N21	0	2	2	5	5	3	3	8	8	2	1	2	2	7	9	3	5
152	N218	0	5	7	5	5	3	6	8	8	2	2	2	2	8	9	5	5
153	N23	0	2	2	3	4	2	3	8	8	2	2	2	2	9	10	7	8
154	N24	0	4	4	4	4	5	6	3	3	2	2	2	1	5	11	6	7
155	N25	0	1	4	4	4	3	5	6	8	2	2	2	2	9	9	3	5
156	N26	0	2	2	3	3	2	3	8	8	2	2	2	2	9	12	7	7
157	N27	0	4	4	4	5	3	5	3	8	2	2	0	0	4	9	3	8
158	N29	0	4	5	3	3	3	6	8	8	2	2	0	0	8	9	5	5
159	N31	0	2	5	3	5	5	5	3	8	2	1	2	2	8	9	5	7
160	N32	0	5	5	3	3	3	6	3	8	2	1	0	0	7	9	6	7
161	N33	0	4	5	3	4	3	6	3	11	2	2	0	0	4	8	7	8
162	N34	0	1	4	3	5	3	8	3	8	2	2	0	0	8	9	3	7
163	N35	0	1	4	3	5	3	9	8	11	2	1	2	1	10	10	4	7
164	N38	0	1	4	3	4	3	3	8	8	2	1	2	2	9	11	4	7
165	N389	0	2	5	3	4	0	0	8	9	2	1	2	1	8	11	3	7
166	N39	0	5	5	4	5	3	5	3	8	2	2	2	2	9	12	3	7
167	N40	0	1	1	3	5	0	0	3	8	2	1	2	2	8	9	3	7
168	N401	0	2	5	3	5	5	6	9	9	2	2	1	1	8	9	7	8
169	N403	0	2	5	3	3	3	3	8	8	2	1	2	2	9	9	7	8
170	N406	0	4	4	3	5	4	7	3	8	2	2	2	2	0	0	3	7
171	N407	0	4	4	3	8	3	4	3	8	2	1	0	0	9	9	3	5
172	N408	0	4	4	3	5	3	4	3	8	2	1	2	2	9	10	7	7
173	N413	0	4	4	4	5	4	7	3	9	2	2	0	0	6	10	3	8
174	N42	0	4	5	4	5	2	2	8	8	2	1	2	2	9	9	5	7
175	N421	0	2	2	3	5	4	5	3	10	2	2	0	0	7	10	3	5
176	N422	0	4	5	5	5	3	6	3	8	2	2	2	2	9	12	5	7
177	N43	0	1	2	5	5	3	3	8	9	2	2	2	1	6	9	3	7
178	N45	0	2	5	4	5	3	8	8	11	2	1	2	1	6	9	3	8
179	N460	0	1	4	4	4	4	8	8	11	2	1	2	1	4	12	5	7
180	N464	0	2	5	3	3	3	6	3	8	2	1	2	1	4	10	0	0
181	N469	0	2	4	3	4	2	4	8	8	2	2	2	2	9	10	5	6
182	N47	0	2	2	3	5	3	6	3	8	2	1	2	1	4	9	3	6
183	N470	0	2	4	3	5	4	6	3	8	2	2	2	1	4	9	4	7
184	N48	0	2	2	3	5	3	6	8	9	2	1	2	1	6	9	3	5
185	N492	0	2	4	4	4	6	6	3	3	2	2	2	1	0	0	0	0
186	N493	0	1	4	3	4	3	6	3	8	2	1	2	2	9	9	5	5
187	N50	0	1	4	4	5	3	3	8	8	2	1	2	2	9	13	6	6
188	N500	0	4	5	4	5	5	6	3	11	2	2	2	1	4	9	6	7
189	N501	0	1	2	3	3	3	3	3	8	2	2	2	2	8	12	5	7
190	N502	0	2	5	3	5	5	7	3	3	2	2	2	2	8	11	5	5
191	N503	0	4	4	5	5	3	3	8	8	2	1	2	2	9	9	7	8
192	N504	0	1	2	3	4	5	12	9	9	2	2	1	1	3	9	6	7
193	N505	0	4	4	3	5	3	3	8	10	2	1	2	2	7	9	6	7
194	N506	0	2	2	3	4	3	4	3	8	2	1	2	2	9	10	3	5
195	N507	0	4	4	3	4	0	0	3	8	2	1	2	1	5	9	0	0
196	N508	0	4	5	4	4	6	6	3	13	2	2	2	1	7	8	5	5
197	N509	0	4	5	3	3	3	5	3	8	2	2	2	1	4	9	5	7
198	N51	0	1	5	4	6	0	0	3	8	2	2	2	2	8	9	0	0
199	N510	0	1	2	3	3	4	8	8	8	2	2	2	1	6	10	3	8
200	N511	0	1	4	4	5	3	5	3	8	2	1	2	2	9	9	3	6
201	N512	0	2	4	4	5	0	0	9	9	2	2	1	1	8	9	1	7
202	N513	0	4	4	4	5	3	3	5	5	2	2	2	2	8	11	5	5
203	N514	0	2	4	4	5	3	3	8	12	2	2	2	2	8	9	5	7
204	N515	0	1	4	3	5	0	0	8	8	2	1	2	2	7	7	5	8
205	N516	0	1	4	4	5	3	8	8	9	2	2	2	1	5	9	3	7
206	N517	0	5	5	3	5	5	5	3	9	2	2	2	1	1	9	4	8
207	N520	0	4	5	4	4	5	8	3	11	2	2	2	1	8	8	3	5
208	N521	0	1	2	3	4	3	3	3	8	2	1	2	2	8	13	5	6
209	N522	0	1	1	4	5	4	5	3	10	2	2	2	2	6	8	5	5
210	N523	0	4	4	5	5	3	10	9	10	2	2	2	1	4	11	7	7
211	N524	0	2	4	3	5	3	8	3	9	2	2	2	1	7	10	7	8
212	N525	0	4	4	4	4	3	6	8	11	2	2	2	1	5	11	5	5
213	N526	0	4	5	4	4	3	3	5	8	2	1	0	0	8	8	4	7
214	N527	0	1	4	3	3	3	8	3	8	2	1	2	2	8	10	7	7
215	N528	0	1	2	4	4	3	8	8	8	2	2	2	2	7	8	5	7
216	N529	0	4	4	4	5	3	4	3	6	2	2	2	2	8	9	2	4
217	N53	0	4	4	3	3	3	6	3	7	2	2	0	0	3	13	5	6
218	N530	0	2	4	3	4	0	0	3	9	2	2	1	1	3	4	3	5
219	N531	0	2	4	5	5	3	5	3	8	2	1	2	2	9	9	7	7
220	N532	0	1	4	5	5	1	3	8	9	2	2	2	2	8	8	4	7
221	N533	0	4	5	4	4	3	3	8	8	1	1	2	2	9	9	3	4
222	N534	0	4	5	4	5	3	3	8	10	2	1	2	2	8	9	3	5
223	N535	0	4	5	3	5	3	6	3	8	2	2	2	2	8	8	7	8
224	N536	0	1	4	1	3	1	7	8	8	2	2	2	2	8	8	4	7
225	N537	0	2	4	3	5	3	6	3	8	2	2	2	1	3	8	5	8
226	N538	0	5	5	5	5	3	3	8	12	2	1	2	2	6	8	5	8
227	N539	0	1	4	3	4	3	8	9	12	2	2	2	1	0	0	4	7
228	N54	0	2	4	3	4	3	6	3	8	2	2	2	2	4	8	4	5
229	N541	0	1	1	4	4	3	3	8	8	1	1	2	2	8	8	8	8
230	N542	0	4	4	3	4	3	6	8	11	2	1	2	1	3	8	4	7
231	N543	0	2	5	0	0	8	9	3	9	2	2	2	1	3	8	4	4
232	N544	0	2	4	3	3	3	6	0	0	2	1	2	2	5	7	5	8
233	N545	0	4	5	4	4	3	3	8	8	2	2	2	2	0	0	5	7
234	N546	0	2	5	3	4	2	3	8	8	2	1	2	2	0	0	4	7
235	N547	0	5	7	4	5	3	4	3	8	2	2	2	2	0	0	5	7
236	N548	0	2	4	4	5	3	4	3	8	2	1	2	2	8	9	3	4
237	N549	0	5	6	4	5	3	8	3	8	2	1	2	2	8	9	7	7
238	N550	0	4	5	3	4	4	6	3	6	2	2	2	2	7	8	4	5
239	N57	0	4	4	4	5	5	0	3	3	2	2	2	2	7	8	4	4
240	N603	0	2	2	5	5	3	3	8	10	2	2	2	2	7	8	5	7
241	N604	0	4	5	4	4	3	5	3	8	2	2	2	2	8	9	7	8
242	N605	0	2	5	4	4	3	3	8	10	2	1	2	2	8	8	6	7
243	N606	0	2	2	4	5	0	0	3	9	2	2	1	1	5	5	5	8
244	N607	0	1	2	4	5	3	3	8	8	1	1	2	2	8	8	6	8
245	N608	0	2	5	5	7	3	3	8	10	2	1	2	2	9	10	3	7
246	N609	0	4	5	5	5	6	6	3	8	2	2	2	2	8	8	4	5
247	N616	0	4	5	2	4	3	5	3	8	2	1	2	2	6	8	5	6
248	N62	0	1	1	3	5	3	6	3	3	2	1	2	1	0	0	3	8
249	N630	0	1	1	4	5	3	3	3	8	2	1	2	2	8	9	3	4
250	N632	0	4	5	3	4	3	3	8	8	2	1	2	2	8	8	3	5
251	N634	0	1	2	4	5	0	0	8	8	2	2	2	1	3	7	7	7
252	N636	0	0	0	0	0	3	3	3	3	2	1	2	2	8	10	3	4
253	N639	0	4	4	3	4	3	3	8	8	2	1	2	2	8	10	8	8
254	N648	0	4	4	4	5	3	6	8	9	2	1	2	1	8	9	4	7
255	N7	0	4	5	3	4	5	6	3	13	2	2	2	1	5	10	7	7
256	N70	0	1	4	5	5	5	0	8	8	2	2	2	1	5	8	7	7
257	N79	0	0	0	0	0	0	0	0	0	2	1	0	0	8	13	2	7
258	N8	0	4	4	5	5	3	5	7	9	2	2	0	0	5	8	0	0
259	N80	0	4	5	3	3	3	6	8	9	2	2	0	0	5	8	3	7
260	N83	0	2	4	3	5	3	3	8	8	2	1	0	0	8	10	3	5
261	N87	0	4	5	5	5	2	3	3	8	2	1	2	2	8	8	0	0
262	N9	0	1	2	4	5	0	0	3	10	2	2	2	2	8	8	0	0
263	N98	0	2	4	3	5	3	6	3	8	2	2	0	0	7	10	0	0
