#! row-name:	pH00	pH30	pH80	e00	e30	e80	c00	c30	c80
1	7	9.4	7.9	20	37	370	60	60	505
2	6.7	9.2	9.2	12	27	80	45	38	450
3	7.8	9.3	8	11	44	350	20	155	1325
4	8.9	8.4	7.8	55	290	460	480	2885	1900
5	7	8.7	8.5	20	150	270	180	1500	3200
6	8.5	8.1	8.2	90	350	360	1350	2350	2435
7	7	9	8	11	44	340	55	300	1240
8	7.4	8.4	8.2	10	50	270	20	550	1400
9	7.4	8.7	8.1	23	110	270	250	1225	2425
10	7.2	8.9	8.5	15	89	220	75	790	1650
11	8.5	9.1	9	14	38	100	20	205	675
12	7.7	8.9	8.1	19	60	330	34	300	725
13	7.5	8.9	7.9	11	58	390	20	420	1050
14	8.2	9	8.2	16	50	250	20	365	1250
15	6.8	8.6	8.2	27	140	310	175	1410	1900
16	6.3	8.5	8	18	170	370	170	1650	2140
17	6.9	8.4	8.3	27	170	140	325	1865	1565
18	7	8.4	8.3	47	210	200	625	2550	2365
19	6.9	8.5	8.5	7	77	200	35	890	2625
20	6.7	8.7	8.6	22	53	170	43	535	1700
21	7.9	8.5	8.5	30	84	170	85	850	1600
22	8.5	8.7	8	16	140	340	38	1080	1935
23	8.2	8.6	7.8	28	150	300	250	1800	2600
24	5.9	8	8.4	20	140	220	210	2150	2900
25	8.3	8.9	8	13	72	350	20	600	1490
26	7	8.5	8.8	9	110	140	25	1300	1500
27	6.3	9	8.6	18	29	200	160	205	2250
28	7	8.5	8.4	38	180	260	490	1850	2950
29	7.4	8.6	8.5	90	190	230	1450	1875	2950
30	7.6	8.2	8.1	20	320	340	130	3425	2450
31	7.7	8.7	8	27	130	340	380	1375	2085
32	7.6	9.2	9.3	15	29	82	20	95	650
33	6.2	8.8	9	8	15	80	35	115	800
34	6.9	9.4	9.4	21	36	85	65	100	600
35	7.1	9.2	9.5	7	23	66	23	30	410
36	7.9	8.9	9.3	10	17	46	20	23	290
37	7.1	9.1	9.1	9	20	56	37	37	550
38	8.1	9.2	9.1	9	29	100	20	55	950
39	7.5	8.9	9	6	25	100	20	75	925
40	6.6	8.5	9.2	11	11	70	38	65	810
41	7.3	9	9	5	24	100	20	120	1250
42	7	8.7	8.5	8	100	190	70	1140	1900
43	7.2	8.9	8.6	16	83	160	85	925	1900
44	7	8.2	8.4	76	280	240	900	2750	2735
45	7.2	8.7	8.7	8	93	150	30	925	1700
46	7.1	9	8.7	11	39	140	55	320	1650
47	6.9	8.3	9	11	17	70	20	87	675
48	8.4	9	9.1	12	24	86	20	37	600
49	8	9.2	9.2	10	21	68	20	29	430
50	6.7	8.7	9	9	15	56	20	29	600
51	8.5	9.4	8.9	15	44	130	20	265	1590
52	7.2	9	8.7	15	50	170	35	490	1650
53	7.5	8.9	8.4	5	88	230	41	700	1650
54	7.6	8.7	8.2	10	130	250	65	1050	1425
55	7.8	9.2	8.9	8	32	120	20	80	1425
56	8.5	9.3	9.1	19	32	120	20	60	1025
57	7.8	9.3	8.9	14	38	110	20	85	1125
58	6.5	8.5	8.7	15	14	91	80	83	680
59	6.6	9	8.8	8	16	64	27	46	640
60	6.8	9.2	8.8	12	26	120	20	55	1250
61	7	8.9	8.7	8	22	120	20	75	1250
62	7.7	9.1	8.2	14	60	300	85	430	1400
63	8.1	9.2	8.9	13	32	120	20	80	725
64	6.9	8.5	9.5	6	9	35	20	24	80
65	6.7	9	9	7	20	74	29	65	725
66	6.4	9.1	8.9	7	23	74	29	78	760
67	7.1	8.6	7.7	13	140	390	145	1685	1915
68	7.6	8.6	8.4	12	170	250	80	1725	2700
69	7.3	8.8	7.7	20	120	420	260	1050	1785
70	8.5	9.3	9	10	33	120	20	120	950
71	7	9	7.7	5	70	340	31	700	1200
72	6.8	8.5	7.8	58	200	340	600	2425	1850
73	7	8.4	8.5	22	130	180	290	1750	1900
74	6.9	8.6	7.6	16	140	340	340	1480	1595
75	8.7	9.2	8.7	13	63	190	20	505	2050
76	8.2	9.1	8.6	15	81	170	100	700	1850
77	6.8	9.1	9	9	27	100	36	104	800
78	6.7	7.9	8.1	9	30	110	29	315	1350
79	6.8	9	9	10	25	85	55	83	575
80	7.9	9.3	9.2	7	33	87	20	110	360
81	8.3	9	9.4	9	23	46	20	34	145
82	8.2	8.9	9.3	9	16	36	20	26	155
83	8.5	9.2	9.3	11	27	73	20	40	355
84	8.3	9	9.1	10	120	39	20	1515	125
85	7.1	9	8.7	16	47	140	35	450	1350
86	8	8.9	8.6	14	50	140	33	455	1275
87	8.1	9	7.9	19	63	340	42	415	1025
88	6.7	9	8.5	15	94	190	150	940	1750
89	7.5	9	8.6	9	80	160	90	725	1450
90	7	8.5	7.8	24	190	330	350	1800	2050
91	7.4	9.2	9	9	34	96	28	95	590
92	7.8	9.3	9.2	9	35	78	20	90	510
93	6.7	8.9	9	7	18	51	30	32	260
94	7	8.9	9.1	9	18	40	32	26	315
95	7.7	9.1	9.1	10	30	74	33	36	615
96	6.4	8.6	8.9	5	14	68	20	65	675
97	7.2	8.9	8.9	5	15	54	21	20	500
98	7.5	9.2	8.9	9	27	89	37	38	850
99	7.7	8.9	8.8	8	22	94	20	40	960
100	6.5	7.8	8.1	9	19	240	23	170	1040
101	6.8	8	8.5	7	110	190	70	1340	1750
102	7.9	9	8.6	7	62	170	20	530	1210
103	6.4	8.2	8	5	36	240	20	355	1710
104	8.4	9	8.8	12	42	150	20	215	1000
105	7.1	8.4	8.1	56	200	260	750	1610	1700
106	6.8	8.6	8	19	150	340	165	1975	2300
107	6.8	8.7	8.6	10	76	200	44	700	2075
108	7.6	9	8.7	6	33	150	20	150	1575
109	8.1	8.5	7.9	32	190	350	210	2285	3315
110	8.7	9.1	7.5	29	60	340	145	245	1125
111	8.5	9.7	7.2	43	110	400	170	665	1675
112	8.6	9	7.2	24	70	410	85	385	1300
113	7.2	9	7.5	14	38	390	60	155	825
114	8.7	9.2	7.8	14	54	300	20	290	930
115	8.6	9.1	8.6	8	31	130	20	58	675
116	8.3	8.9	9.2	11	20	48	20	29	215
117	6.5	7.5	9	7	7	15	20	37	50
118	6.6	9	9.2	14	23	73	42	30	590
119	8.2	9	9.3	11	21	53	28	32	315
120	7.7	9.2	9.3	11	26	60	40	33	450
121	6.2	8.3	9	8	15	33	25	80	440
122	7.3	9.1	9.2	7	24	40	22	27	290
123	7.8	8.8	9	16	21	45	25	30	335
124	7.8	9.2	8.2	16	51	180	31	285	1250
125	7.5	8.6	7.4	12	150	420	90	1400	2375
126	6.7	8.1	8.4	7	100	230	41	1165	3050
127	8.3	8.4	7.6	66	180	390	1150	1540	2400
128	7.6	8.7	7.7	14	72	420	55	455	1115
129	7.2	9	8	9	57	330	60	445	1725
130	6.2	8.9	7.8	7	26	320	38	83	625
131	7.3	9	8.2	10	39	310	31	185	1375
132	8.3	7.8	8	14	200	340	29	110	965
133	8.2	8.3	8.3	68	290	310	750	3450	2835
134	7.3	8.2	7.9	94	300	390	1300	3690	2725
135	7.3	7.8	7.9	240	460	430	3000	3210	2625
136	8.2	7.9	7.9	110	460	420	1500	2925	3065
137	7.6	8.8	8.1	14	68	310	65	530	1750
138	7.1	8.2	8.8	7	39	44	27	80	220
139	6.5	8	8.9	5	9	27	27	32	90
140	7.4	8.9	9.2	10	30	76	23	90	550
141	7.2	8.9	8.8	9	69	170	70	610	1350
142	6.8	8.5	8	26	170	310	410	2125	1950
143	7	8.5	7.8	6	120	330	32	1250	1550
144	7.3	8.3	8.7	62	240	210	900	2560	2225
145	8.6	8.8	8.4	22	130	270	65	1590	2300
146	8	7.8	7.9	80	440	380	1150	3300	2775
147	7.2	8.7	8	10	120	290	38	1350	1850
148	6.6	8.5	9.1	8	15	77	23	60	440
149	7.7	9.1	7.9	10	34	350	20	85	545
150	7.8	9.2	7.9	15	46	360	42	150	820
151	7.3	8.5	8.5	56	230	240	700	2935	2450
152	7.1	8.3	8.3	78	280	220	1150	3250	3050
153	7.2	8.6	8.3	21	130	170	220	825	1900
154	7.7	9	9.5	10	30	63	20	85	240
155	8.6	9	9.3	15	27	64	20	65	350
156	6.9	8.5	8.8	8	25	72	20	150	215
157	7.4	8.9	8.4	17	74	210	120	890	1850
158	7.1	8.2	7.7	210	330	530	3350	3575	3050
159	7.2	8.4	8.5	120	310	270	1000	3325	2925
160	6.7	8.7	8.5	23	150	200	235	1950	2500
161	6.7	8.8	8.4	13	120	180	105	1000	2000
162	7.6	8.9	8.6	18	99	150	200	1200	1450
163	6.3	8.6	8.3	59	160	180	390	2000	2200
164	8.3	8.3	8.6	20	260	240	175	2475	2700
165	7.1	8.9	9.3	6	32	81	25	110	575
166	6.7	7.9	9.1	6	17	76	24	80	740
167	6.7	9	8.7	13	59	200	70	525	2200
168	8.9	7.7	7.8	34	510	340	260	2775	3365
169	6.8	8.6	8.7	10	66	150	20	285	1595
170	8.5	9	9.1	16	39	89	22	100	650
171	6.6	8.6	9.2	7	26	53	20	88	350
172	8.3	9.2	9.2	25	29	85	125	67	590
173	6.9	9.2	9.2	11	44	100	38	170	840
174	8.2	9	8.9	19	84	120	20	740	1175
175	7.2	8.4	8.5	45	260	180	550	2600	1900
176	6	8.9	8.8	20	52	160	75	455	1800
177	8	8.9	9.1	15	27	38	27	60	285
178	6.5	7.9	9.2	11	19	35	31	65	200
179	7	8.9	8.8	12	85	160	90	975	1625
180	8.6	9.3	9.2	17	55	120	20	285	1115
181	7.3	9.2	9.1	14	39	110	30	140	780
182	6.2	8.1	9.1	9	17	48	55	20	380
183	6.5	8.9	9.1	5	21	55	25	27	365
184	6.5	7.6	9.2	5	9	22	20	20	110
185	6.7	9.1	8.8	7	30	95	24	100	1150
186	7.8	9.1	9.3	17	27	76	20	41	650
187	6.4	8.5	9.2	6	13	78	20	34	560
188	7.2	9.1	8.7	11	37	130	55	140	1215
189	8.1	9.1	8.7	10	55	170	20	335	1700
190	6.4	8.3	9	5	22	120	20	27	1050
191	6.5	8.4	9	11	14	89	55	46	675
192	6.1	8.5	8.8	7	16	100	20	100	1050
193	7.4	9.2	8.9	5	38	150	20	155	1450
194	6.6	9.1	9.1	5	23	85	25	63	510
195	6.7	9.1	9.1	8	24	88	27	37	625
196	8.5	9.4	9.2	16	46	100	20	150	900
197	6.9	9.2	9.3	8	34	76	39	108	340
198	6.4	8.6	9.4	6	13	40	38	42	160
199	6.7	8.7	9.4	5	15	48	20	53	205
200	7.6	9.3	9.3	11	34	88	29	50	420
201	7.6	9	9.4	10	21	55	20	23	370
202	6.1	9	9.1	10	22	88	55	33	725
203	8.2	9.2	8.8	10	54	160	20	325	1575
204	8	9.3	8.8	11	56	170	55	305	2275
205	7	9	8.7	10	32	140	65	140	1800
206	6.7	8.9	9.1	5	24	75	20	32	590
207	6.4	9.2	9.1	10	30	96	44	83	925
208	7.7	9.3	9.1	5	32	110	20	50	1150
209	6.3	7.8	9.3	5	12	40	20	23	133
210	7.5	9.1	9.3	6	31	92	20	60	740
211	8.4	9.1	8.7	18	64	200	20	520	1150
212	7.6	9	8.9	5	23	89	20	63	600
213	8.2	8.9	8.7	7	21	76	20	75	625
214	7.3	8.6	7.6	9	48	370	55	570	1700
215	6.8	9	7.7	9	66	380	34	850	1620
216	8.4	9.1	8.4	12	96	210	20	850	1750
217	7.6	9.1	8.8	6	35	130	31	225	1200
218	9	9.1	8.8	18	74	180	24	800	1850
219	8.7	9.1	8.7	30	100	210	135	690	2425
220	8.5	9.1	9.3	13	26	76	20	75	550
221	7.6	8.9	9.5	10	18	47	25	70	175
222	7.4	9.1	8.3	10	92	340	75	800	1500
223	7.5	8.8	8.5	13	180	250	110	2600	2650
224	6.8	8.9	8.5	17	130	270	140	1650	2575
225	7.1	8.7	7.9	16	170	370	120	2300	2275
226	8.1	8.5	7.7	80	220	220	1050	2700	2525
227	6.7	8.9	8.4	10	89	160	55	1040	1850
228	5.8	8.7	9	24	18	66	77	83	640
229	6.1	8	9	5	6	26	20	33	200
230	8.6	9	8.2	23	68	150	65	575	1500
231	6.3	9.1	8.8	29	30	80	175	140	750
232	8.1	9.3	9.1	26	31	100	29	61	950
233	7.1	9.2	9.1	9	30	110	20	48	590
234	8	9.5	8.6	6	48	200	20	165	850
235	6.4	9.1	9.5	5	27	66	20	110	450
236	6.1	8.1	9.4	8	24	27	20	34	430
237	8.2	8.9	9.1	17	77	96	20	590	900
238	7.5	8.7	7.5	29	190	340	330	1950	2650
239	8.3	8.5	7.3	28	260	320	100	2700	3000
240	8.4	9.3	8	20	50	350	70	290	1175
241	8.7	9	8.2	27	120	320	100	1040	1850
242	7.5	9.4	8.8	12	54	170	20	280	1135
243	7.1	9.2	8.4	6	65	160	39	500	1500
244	7.5	9.3	8.3	7	55	160	55	330	1900
245	7	9.2	8.8	8	41	110	70	240	1550
246	7.8	9.4	9.4	8	45	95	23	170	685
247	6.8	9.1	9.3	7	26	86	45	60	500
248	6.7	8.9	9.2	5	19	66	37	40	300
249	7.8	9.1	8.5	30	72	150	200	625	1475
250	6.8	9.2	8.8	13	47	140	80	345	1400
251	8.5	9.4	9.1	18	51	140	20	295	1525
252	7.2	8.4	8.8	86	290	210	1300	3305	2325
253	8.7	8.4	8.4	32	280	230	215	2625	2715
254	6.7	8.8	9.5	5	34	29	24	185	63
255	6.6	8.6	9.5	5	12	35	36	38	83
256	6.4	8.7	9.5	5	16	35	32	20	120
257	7.3	9.2	9.3	16	22	68	20	36	550
258	6.2	8.7	9.3	5	11	44	20	46	290
259	8.3	9.2	8.8	17	38	130	20	185	1200
260	7.8	8.8	8.6	23	160	240	160	1700	1900
261	8.8	8.5	8.7	58	260	260	550	2865	2350
262	8.8	8.5	8.7	45	320	230	370	3385	2650
263	8.8	8.9	8.7	34	170	240	250	2350	2950
264	6.9	8.9	9.3	10	24	66	28	105	335
265	6.7	8.7	9.2	6	16	36	28	66	145
266	6.9	8.5	7.6	74	240	400	1100	3150	2350
267	8.6	8.9	8	20	130	390	65	1725	2075
268	8.1	9	8.8	18	120	190	125	1450	1450
269	7.4	9.1	8.4	6	78	270	30	850	1150
270	7.8	8.5	8.5	60	310	240	1000	3450	2365
271	8.7	8.6	8.6	39	280	280	320	3175	3725
272	7.8	8.7	8.6	25	190	210	280	2700	2525
273	7.3	8.9	9.1	7	35	120	25	260	1425
274	6.9	9.1	8.5	26	74	150	270	975	1800
275	6.2	8.3	9.1	13	19	82	65	130	780
276	8.1	9	9.3	14	24	56	20	90	340
277	8.2	9	9.3	14	21	68	20	35	460
278	6.7	8.8	9.3	10	23	68	33	80	485
279	8.6	9.3	9.2	14	45	120	20	290	1075
280	8.4	9.3	9.3	12	34	110	20	125	800
281	6.5	9.2	8.9	7	39	130	20	340	1200
282	6.7	8.9	8.7	7	66	160	29	900	1600
283	8.4	9	8.4	17	100	210	37	840	2600
284	7.5	8.4	8.3	46	250	230	600	3245	2960
285	7.2	8.3	8.3	51	300	260	800	3240	3300
286	7.8	8.8	8.3	16	160	220	80	2225	2600
287	6.4	9.3	9.1	10	34	90	39	160	800
288	8	9.2	9.4	16	26	80	20	47	690
289	7.4	8.7	9.3	11	15	42	20	24	270
290	5.9	7.5	9.3	8	7	58	35	39	350
291	7.3	8.4	8.3	14	9	21	20	38	175
292	8.5	8.9	8.7	13	94	200	20	1035	1400
293	8.7	8.8	8	32	150	400	165	1690	1740
294	7.8	8.4	8.9	40	280	180	550	2500	1890
295	7.2	8.6	8.6	28	210	200	340	2100	2115
296	8.1	8.7	8.9	12	110	180	27	1000	1775
297	7.1	8.7	7.9	19	140	440	160	1700	1825
298	8.4	9	7.9	16	100	420	28	1050	2200
299	8	8.8	8.4	10	130	260	20	1600	2250
300	8.2	8.8	8.6	16	110	210	48	1425	1475
301	7.1	8.8	8.7	7	100	170	38	1400	1850
302	8.2	8.5	8	29	190	360	190	2150	1915
303	8.5	9.3	8.5	17	82	270	20	675	2900
304	8.6	8.9	7.8	24	140	430	48	1600	1620
305	8.3	8.8	7.5	22	110	340	46	1130	1575
306	6.3	8.8	8.6	11	20	130	20	145	1250
307	6.4	8.4	8.7	9	11	73	20	68	740
308	8.6	9	8.5	17	110	250	31	1250	1800
309	8.1	9.1	8.9	22	34	160	20	155	1325
310	7	9.1	9.2	9	22	67	20	47	450
311	7.1	8.8	9.1	5	13	38	20	27	270
312	8.3	9.2	9	14	37	110	20	165	1235
313	6.7	8.7	8.1	46	210	280	520	2425	3100
314	6.4	8.5	9.3	11	24	85	40	135	635
315	6.5	7.7	8.9	11	6	18	32	21	155
316	6.5	8.7	9.1	13	13	57	28	38	550
317	6.5	8	9.2	8	6	55	20	20	540
318	5.6	8	9.4	16	6	32	44	22	260
319	8.8	8.7	8.4	40	200	280	270	2450	3700
320	7.5	8.5	8.4	42	260	310	600	2950	4250
321	6.8	8.7	8.6	32	170	220	350	2400	2900
322	6	9	9.2	11	30	86	50	165	950
323	6.5	9.1	9.5	7	23	60	25	75	410
324	8.4	9.3	9.5	14	34	76	20	70	600
325	7.1	9.4	9.3	5	38	100	20	110	850
326	7.7	8.4	8.6	60	320	270	800	2735	2765
327	8.3	8.5	8.7	27	300	250	260	3160	3000
328	7.7	8.7	8.7	18	270	270	170	2985	3470
329	7.7	8.8	8.6	26	240	270	300	2950	2950
330	6.7	8.9	8.8	7	61	170	27	625	2000
331	6.5	8.5	8.7	5	50	180	20	625	1675
332	6.6	8.9	8.8	10	95	190	75	1150	1850
333	7	9.6	9.6	11	50	84	55	300	625
334	7.2	9.5	9.4	14	31	44	85	78	185
335	6.7	9.2	8.7	7	73	160	47	625	2300
336	6.7	8.6	8.2	11	190	200	95	2700	2650
337	6.8	9.3	8.4	11	63	250	46	550	2250
338	6.6	8.7	8.5	20	190	220	60	2200	3000
339	6.9	8.5	8.2	45	290	230	600	2650	2825
340	6.4	8.5	8.2	7	290	120	32	2650	1750
341	7.6	8.3	6.8	16	18	410	130	155	2025
342	7.3	8.7	7.2	14	150	350	85	1730	1900
343	7.4	8.8	8.3	100	110	200	1340	1015	2425
344	7.2	8.2	8.6	56	340	210	700	3400	2640
345	7.1	8.8	8.6	9	160	190	60	2150	2750
346	6.8	8.7	8.6	22	210	210	260	2350	2650
347	7.7	8.4	8.5	25	290	270	300	2975	2965
348	8.4	9.1	8.9	16	41	140	20	300	1475
349	6.3	8.4	9.1	12	16	91	100	130	1100
350	7.1	8.8	7.8	18	170	270	180	1450	2450
351	7.8	8.5	6.8	56	300	270	750	2460	2775
352	7.5	8.7	5.1	19	180	450	135	1250	1925
353	8.5	7.9	4.9	130	510	450	1350	3250	2400
354	8.3	8.8	7.5	29	210	380	240	1450	2175
355	7.6	8.6	7.9	13	60	200	38	420	1300
356	7.2	8.8	7.9	14	57	220	36	600	1700
357	8.2	9.1	7.2	20	87	350	50	1025	1735
358	7.1	8.9	7.3	12	50	400	40	485	1625
359	8.5	8.7	7.4	25	130	350	70	1500	1975
360	9	8.3	5.8	55	370	310	550	2415	3935
361	8.9	8.3	8.1	80	340	260	950	4770	3190
362	8.4	8.2	7	51	360	320	650	4135	4725
363	7.5	8.4	7.1	36	330	290	430	4150	3700
364	7.5	8.8	8.2	36	160	200	430	1800	2600
365	7.2	8.4	8	11	86	260	65	1400	1650
