digraph finite_state_machine {
    graph [fontname = "Helvetica-Oblique",
	   fontsize = 36,
	   label = "\n\n\n\n Lag in CAN/COM transfer makes system odd\n(from the perspective of users).",
	   size = "26,26" ];

    rankdir=LR;
    {size="8,5" node [shape = doublecircle]; g; s};
    node [shape = circle];
    #!
    #!
    g_1 [label="client(1)", color=gold1,fontsize=16,style=filled];
    g_2 [label="client(2)", color=gold1,fontsize=16,style=filled];
    g_3 [label="client(3)", color=gold1,fontsize=16,style=filled];
    s_1 [label="server(1)", color=lightsteelblue1,fontsize=16,style=filled];
    s_2 [label="server(2)", color=lightsteelblue1,fontsize=16,style=filled];
    s_3 [label="server(3)", color=lightsteelblue1,fontsize=16,style=filled];
    g [label="e3c\nGUI", color=salmon2,fontsize=24, fontname="Palatino-Italic",fontcolor=white,style=filled];
    s [label="Failsafe\nserver", color=salmon2,fontsize=24, fontname="Palatino-Italic",fontcolor=white,style=filled];
    g -> {g_1, g_2, g_3} [label="enter"];
    #!
    #!
    g_1 -> s_1 [label = "t=1; send:val=1" ];
    g_2 -> s_2 [label = "t=2; send:val=2" ];
    g_3 -> s_3 [label = "t=3; send:val=3" ];
    s_1 -> s   [label = "t=8; send:val=1" ];
    s_2 -> s   [label = "t=3; send:val=2" ];
    s_3 -> s   [label = "t=5; send:val=3" ];

    g  -> s [label="get(t=3): val=2", dir="both", color="red"];
    g  -> s [label="get(t=5): val=3", dir="both", color="red"];
    g  -> s [label="get(t=8): val=1", dir="both", color="red"]; #, weight=100];

    {s} -> notify [label="Structure\nupdated:",constraint=false,dir="both"];
    {g} -> notify [label="Structure\nupdated:",dir="both"];
    notify [label="Server does \nNot provide a 'Notify' \n(when changes \nare completed)\n??", shape=note,color=deepskyblue1,style=filled,fontcolor=white,fontsize=12];
#    notify [label="Notify\n'when updated'\ndoes\s Not Exist\n??", shape=star,color=deepskyblue1,style=filled,fontcolor=white,fontsize=24];
#    notify [label="Notify\ndoes\s Not Exist\n??", shape=star,color=darkseagreen1,style=filled,fontcolor=red,fontsize=24];
#    notify [label="Notify\ndoes\s Not Exist\n??"shape=star,fixedsize=true,width=4,color=green,style=filled,fontcolor=red,fontsize=24];
}


