digraph "unix" {
    graph [fontname = "Helvetica-Oblique",
	   fontsize = 36,
	   label = "\n\n\n\nObject Oriented Graphs\nStephen North, 3/19/93",
	   size = "12,12" ];
    node [shape = polygon,
	  sides = 4,
	  distortion = "0.0",
	  orientation = "0.0",
	  skew = "0.0",
	  color = white,
	  style = filled,
	  fontname = "Helvetica-Outline" ];

	  # FIXME add the nodes

    "5th Edition" -> "6th Edition";
    "5th Edition" -> "PWB 1.0";
    "6th Edition" -> LSX;
    "6th Edition" -> "1 BSD";
    "6th Edition" -> "Mini Unix";
}
